…
## Get the data

You can get the resource directly in R, without having to download it
first\!

``` r
apartments <- # <get the resource directly into R>
  list_package_resources("https://open.toronto.ca/dataset/apartment-building-evaluation/") %>%
  get_resource()

apartments
```

    ## # A tibble: 3,446 x 32
    ##    `_id` BALCONY_GUARDS CONFIRMED_STORE… CONFIRMED_UNITS ELEVATORS
    ##    <int> <chr>                     <int>           <int> <chr>    
    ##  1     1 N/A                          28             457 4        
    ##  2     2 N/A                           4              15 N/A      
    ##  3     3 N/A                           3              26 N/A      
    ##  4     4 N/A                           3              10 N/A      
    ##  5     5 5                            29             272 5        
    ##  6     6 N/A                           3              12 N/A      
    ##  7     7 5                             7              95 5        
    ##  8     8 3                            18             287 4        
    ##  9     9 4                            17             327 5        
    ## 10    10 4                            32             565 4        
    ## # … with 3,436 more rows, and 27 more variables:
    ## #   ENTRANCE_DOORS_WINDOWS <chr>, ENTRANCE_LOBBY <chr>,
    ## #   EVALUATION_COMPLETED_ON <chr>, EXTERIOR_CLADDING <chr>,
    ## #   EXTERIOR_GROUNDS <chr>, EXTERIOR_WALKWAYS <chr>,
    ## #   GARBAGE_BIN_STORAGE_AREA <chr>, GARBAGE_CHUTE_ROOMS <chr>,
    ## #   GRAFFITI <chr>, INTERIOR_LIGHTING_LEVELS <chr>,
    ## #   INTERIOR_WALL_CEILING_FLOOR <chr>, INTERNAL_GUARDS_HANDRAILS <chr>,
    ## #   NO_OF_AREAS_EVALUATED <chr>, OTHER_FACILITIES <chr>,
    ## #   PARKING_AREA <chr>, PROPERTY_TYPE <chr>, RESULTS_OF_SCORE <chr>,
…
    ## The following objects are masked from 'package:stats':
    ## 
    ##     filter, lag

    ## The following objects are masked from 'package:base':
    ## 
    ##     intersect, setdiff, setequal, union

``` r
apartments %>%
  mutate(balcony_guards = ifelse(balcony_guards == "N/A", NA, balcony_guards),
         confirmed_storeys = ifelse(confirmed_storeys == "N/A", NA, confirmed_storeys))
```

    ## # A tibble: 3,446 x 32
    ##       id balcony_guards confirmed_store… confirmed_units elevators
    ##    <int> <chr>                     <int>           <int> <chr>    
    ##  1     1 <NA>                         28             457 4        
    ##  2     2 <NA>                          4              15 N/A      
    ##  3     3 <NA>                          3              26 N/A      
    ##  4     4 <NA>                          3              10 N/A      
    ##  5     5 5                            29             272 5        
    ##  6     6 <NA>                          3              12 N/A      
    ##  7     7 5                             7              95 5        
    ##  8     8 3                            18             287 4        
    ##  9     9 4                            17             327 5        
    ## 10    10 4                            32             565 4        
    ## # … with 3,436 more rows, and 27 more variables:
    ## #   entrance_doors_windows <chr>, entrance_lobby <chr>,
    ## #   evaluation_completed_on <chr>, exterior_cladding <chr>,
    ## #   exterior_grounds <chr>, exterior_walkways <chr>,
    ## #   garbage_bin_storage_area <chr>, garbage_chute_rooms <chr>,
    ## #   graffiti <chr>, interior_lighting_levels <chr>,
    ## #   interior_wall_ceiling_floor <chr>, internal_guards_handrails <chr>,
    ## #   no_of_areas_evaluated <chr>, other_facilities <chr>,
    ## #   parking_area <chr>, property_type <chr>, results_of_score <chr>,
…
